%YAML 1.1
%TAG !u! tag:unity3d.com,2011:
--- !u!114 &11400000
MonoBehaviour:
  m_ObjectHideFlags: 0
  m_CorrespondingSourceObject: {fileID: 0}
  m_PrefabInstance: {fileID: 0}
  m_PrefabAsset: {fileID: 0}
  m_GameObject: {fileID: 0}
  m_Enabled: 1
  m_EditorHideFlags: 0
  m_Script: {fileID: 11500000, guid: a4f0bf227ce0d284ca86e9dec444642b, type: 3}
  m_Name: Quartz
  m_EditorClassIdentifier: 
  blockName: Quartz
  size: 0.5
  startingValue: 2
  material: {fileID: 2100000, guid: 905a27205781adc418d358b46f8152de, type: 2}
  physicsMaterial: {fileID: 13400000, guid: 13e661499fa52174aa12f21e63e0e94d, type: 2}
  startingBlockEffects: []
  startingBlockTags: []
