%YAML 1.1
%TAG !u! tag:unity3d.com,2011:
--- !u!114 &11400000
MonoBehaviour:
  m_ObjectHideFlags: 0
  m_CorrespondingSourceObject: {fileID: 0}
  m_PrefabInstance: {fileID: 0}
  m_PrefabAsset: {fileID: 0}
  m_GameObject: {fileID: 0}
  m_Enabled: 1
  m_EditorHideFlags: 0
  m_Script: {fileID: 11500000, guid: 0ae4129e3f7ac11429cc8f93d359bef2, type: 3}
  m_Name: Conveyor_Advanced
  m_EditorClassIdentifier: 
  structureName: Advanced Conveyor
  structureCost: 100
  structureDescription: A faster conveyor for quickly getting your crystals around.
  structureIcon: {fileID: 21300000, guid: 6d28d8d3096f17e429960a670db75a3a, type: 3}
  spriteReference: Conveyor_Advanced
  spriteHeight: 32
  framesPerSwap: 2
  length: 2
  width: 2
  height: 0
  hitbox: {fileID: 8822014302267827683, guid: 5e9bac6b1663bf647891125fc2974f06, type: 3}
  placementGrid:
    gridSize: {x: 2, y: 2}
    cellSize: {x: 10, y: 10}
    cells:
    - row: 0101
    - row: 0101
  componentBehaviours:
  - {fileID: 11400000, guid: 55caa0405e1cbe74d85ed8b6776fda27, type: 2}
