%YAML 1.1
%TAG !u! tag:unity3d.com,2011:
--- !u!114 &11400000
MonoBehaviour:
  m_ObjectHideFlags: 0
  m_CorrespondingSourceObject: {fileID: 0}
  m_PrefabInstance: {fileID: 0}
  m_PrefabAsset: {fileID: 0}
  m_GameObject: {fileID: 0}
  m_Enabled: 1
  m_EditorHideFlags: 0
  m_Script: {fileID: 11500000, guid: 0ae4129e3f7ac11429cc8f93d359bef2, type: 3}
  m_Name: Conveyor_Elite
  m_EditorClassIdentifier: 
  structureName: Elite Conveyor
  structureCost: 10000
  structureDescription: 'Be warned, some call this conveyor TOO fast. '
  structureIcon: {fileID: 21300000, guid: c4b9adf547f6f4e41a06acead1d7f508, type: 3}
  spriteReference: Conveyor_Elite
  spriteHeight: 32
  framesPerSwap: 1
  length: 2
  width: 2
  height: 0
  hitbox: {fileID: 8822014302267827683, guid: 5e9bac6b1663bf647891125fc2974f06, type: 3}
  placementGrid:
    gridSize: {x: 2, y: 2}
    cellSize: {x: 10, y: 10}
    cells:
    - row: 0101
    - row: 0101
  componentBehaviours:
  - {fileID: 11400000, guid: b35f0f461e945c949b2840ebc21657d0, type: 2}
