%YAML 1.1
%TAG !u! tag:unity3d.com,2011:
--- !u!114 &11400000
MonoBehaviour:
  m_ObjectHideFlags: 0
  m_CorrespondingSourceObject: {fileID: 0}
  m_PrefabInstance: {fileID: 0}
  m_PrefabAsset: {fileID: 0}
  m_GameObject: {fileID: 0}
  m_Enabled: 1
  m_EditorHideFlags: 0
  m_Script: {fileID: 11500000, guid: 725d8773a29a46640b82a6b31e2417e7, type: 3}
  m_Name: Infuser_slice
  m_EditorClassIdentifier: 
  tag: Effector
  onContactEffects:
  - {fileID: 11400000, guid: 4c3aa2d4d5300d945b7079592f66d23b, type: 2}
