%YAML 1.1
%TAG !u! tag:unity3d.com,2011:
--- !u!78 &1
TagManager:
  serializedVersion: 2
  tags:
  - Conveyor
  - Spawner
  - BeltItem
  - Effector
  layers:
  - Default
  - TransparentFX
  - Ignore Raycast
  - 
  - Water
  - UI
  - Structure
  - StructurePreview
  - Belt Items
  - Hide Factory
  - Show Factory
  - 
  - 
  - 
  - 
  - 
  - 
  - 
  - 
  - 
  - 
  - 
  - 
  - 
  - 
  - 
  - 
  - 
  - MousePosition
  - 
  - 
  - 
  m_SortingLayers:
  - name: Background
    uniqueID: 294863497
    locked: 0
  - name: Default
    uniqueID: 0
    locked: 0
